{
  "config": {
    "git-directory": ".git"
  },
  "hooks": {
    "commit-msg": {
      "enabled": true,
      "actions": [
        {
          "run": "CaptainHook::Message.MustContainsRegex",
          "options": {
            "regex": "something"
          }
        }
      ]
    },
    "post-change": {
      "enabled": false,
      "actions": []
    },
    "post-checkout": {
      "enabled": false,
      "actions": []
    },
    "post-commit": {
      "enabled": false,
      "actions": []
    },
    "post-merge": {
      "enabled": false,
      "actions": []
    },
    "post-rewrite": {
      "enabled": false,
      "actions": []
    },
    "pre-commit": {
      "enabled": false,
      "actions": []
    },
    "pre-push": {
      "enabled": false,
      "actions": []
    },
    "prepare-commit-msg": {
      "enabled": false,
      "actions": []
    }
  }
}